Tools for Data Manipulation
…
Select rows

We can use mutar to select rows. When you reference a variable in the data frame, you can indicate this by using a one sided formula.

mutar(flights, ~ month == 1 & day == 1)
mutar(flights, ~ 1:10)

And for sorting:

mutar(flights, ~ order(year, month, day))

## # A tibble: 336,776 × 19
##     year month   day dep_time sched_dep_time dep_delay arr_time sched_arr_time
##    <int> <int> <int>    <int>          <int>     <dbl>    <int>          <int>
##  1  2013     1     1      517            515         2      830            819
##  2  2013     1     1      533            529         4      850            830
##  3  2013     1     1      542            540         2      923            850
##  4  2013     1     1      544            545        -1     1004           1022
##  5  2013     1     1      554            600        -6      812            837
##  6  2013     1     1      554            558        -4      740            728
##  7  2013     1     1      555            600        -5      913            854
##  8  2013     1     1      557            600        -3      709            723
##  9  2013     1     1      557            600        -3      838            846
## 10  2013     1     1      558            600        -2      753            745
## # ℹ 336,766 more rows
## # ℹ 11 more variables: arr_delay <dbl>, carrier <chr>, flight <int>,
## #   tailnum <chr>, origin <chr>, dest <chr>, air_time <dbl>, distance <dbl>,
## #   hour <dbl>, minute <dbl>, time_hour <dttm>
…
mutar(flights, n ~ .N, by = "month")

mutar(flights, delay ~ mean(dep_delay, na.rm = TRUE), by = "month")

You can also provide additional arguments to a formula. This is especially helpful when you want to pass arguments from a function to such expressions. The additional augmentation can be anything which you can use to select columns (character, regular expression, function) or a named list where each element is a character.

mutar(
  flights,
  .n ~ mean(.n, na.rm = TRUE) | "^.*delay$",
  .x ~ mean(.x, na.rm = TRUE) | list(.x = "arr_time"),
  by = "month"
)

## # A tibble: 336,776 × 19
##     year month   day dep_time sched_dep_time dep_delay arr_time sched_arr_time
##    <int> <int> <int>    <int>          <int>     <dbl>    <dbl>          <int>
##  1  2013     1     1      517            515      10.0    1523.            819
##  2  2013     1     1      533            529      10.0    1523.            830
##  3  2013     1     1      542            540      10.0    1523.            850
##  4  2013     1     1      544            545      10.0    1523.           1022
##  5  2013     1     1      554            600      10.0    1523.            837
##  6  2013     1     1      554            558      10.0    1523.            728
##  7  2013     1     1      555            600      10.0    1523.            854
##  8  2013     1     1      557            600      10.0    1523.            723
##  9  2013     1     1      557            600      10.0    1523.            846
## 10  2013     1     1      558            600      10.0    1523.            745
## # ℹ 336,766 more rows
## # ℹ 11 more variables: arr_delay <dbl>, carrier <chr>, flight <int>,
## #   tailnum <chr>, origin <chr>, dest <chr>, air_time <dbl>, distance <dbl>,
## #   hour <dbl>, minute <dbl>, time_hour <dttm>
…
